mode: atomic
gitlab.com/fgmarand/gocoverstats/calc/calc_v0_0_1.go:18.83,20.29 2 0
gitlab.com/fgmarand/gocoverstats/calc/calc_v0_0_1.go:47.2,47.13 1 0
gitlab.com/fgmarand/gocoverstats/calc/calc_v0_0_1.go:20.29,23.23 3 0
gitlab.com/fgmarand/gocoverstats/calc/calc_v0_0_1.go:26.3,26.38 1 0
gitlab.com/fgmarand/gocoverstats/calc/calc_v0_0_1.go:30.3,30.37 1 0
gitlab.com/fgmarand/gocoverstats/calc/calc_v0_0_1.go:23.23,25.4 1 0
gitlab.com/fgmarand/gocoverstats/calc/calc_v0_0_1.go:26.38,28.4 1 0
gitlab.com/fgmarand/gocoverstats/calc/calc_v0_0_1.go:30.37,32.23 1 0
gitlab.com/fgmarand/gocoverstats/calc/calc_v0_0_1.go:39.4,39.63 1 0
gitlab.com/fgmarand/gocoverstats/calc/calc_v0_0_1.go:32.23,33.64 1 0
gitlab.com/fgmarand/gocoverstats/calc/calc_v0_0_1.go:36.5,36.13 1 0
gitlab.com/fgmarand/gocoverstats/calc/calc_v0_0_1.go:33.64,35.6 1 0
gitlab.com/fgmarand/gocoverstats/calc/calc_v0_0_1.go:39.63,40.52 1 0
gitlab.com/fgmarand/gocoverstats/calc/calc_v0_0_1.go:43.5,43.43 1 0
gitlab.com/fgmarand/gocoverstats/calc/calc_v0_0_1.go:40.52,41.14 1 0
gitlab.com/fgmarand/gocoverstats/calc/calc_v0_0_1.go:51.85,54.29 3 0
gitlab.com/fgmarand/gocoverstats/calc/calc_v0_0_1.go:72.2,72.38 1 0
gitlab.com/fgmarand/gocoverstats/calc/calc_v0_0_1.go:75.2,75.12 1 0
gitlab.com/fgmarand/gocoverstats/calc/calc_v0_0_1.go:54.29,56.30 2 0
gitlab.com/fgmarand/gocoverstats/calc/calc_v0_0_1.go:66.3,66.15 1 0
gitlab.com/fgmarand/gocoverstats/calc/calc_v0_0_1.go:69.3,70.57 2 0
gitlab.com/fgmarand/gocoverstats/calc/calc_v0_0_1.go:56.30,57.29 1 0
gitlab.com/fgmarand/gocoverstats/calc/calc_v0_0_1.go:57.29,58.12 1 0
gitlab.com/fgmarand/gocoverstats/calc/calc_v0_0_1.go:58.12,60.6 1 0
gitlab.com/fgmarand/gocoverstats/calc/calc_v0_0_1.go:60.11,62.6 1 0
gitlab.com/fgmarand/gocoverstats/calc/calc_v0_0_1.go:66.15,68.4 1 0
gitlab.com/fgmarand/gocoverstats/calc/calc_v0_0_1.go:72.38,74.3 1 0
gitlab.com/fgmarand/gocoverstats/calc/calc_v0_0_2.go:23.37,25.16 2 0
gitlab.com/fgmarand/gocoverstats/calc/calc_v0_0_2.go:28.2,35.16 7 0
gitlab.com/fgmarand/gocoverstats/calc/calc_v0_0_2.go:38.2,38.12 1 0
gitlab.com/fgmarand/gocoverstats/calc/calc_v0_0_2.go:25.16,27.3 1 0
gitlab.com/fgmarand/gocoverstats/calc/calc_v0_0_2.go:35.16,37.3 1 0
gitlab.com/fgmarand/gocoverstats/calc/calc_v0_0_2.go:44.83,46.29 2 0
gitlab.com/fgmarand/gocoverstats/calc/calc_v0_0_2.go:73.2,73.13 1 0
gitlab.com/fgmarand/gocoverstats/calc/calc_v0_0_2.go:46.29,49.23 3 0
gitlab.com/fgmarand/gocoverstats/calc/calc_v0_0_2.go:52.3,52.38 1 0
gitlab.com/fgmarand/gocoverstats/calc/calc_v0_0_2.go:56.3,56.37 1 0
gitlab.com/fgmarand/gocoverstats/calc/calc_v0_0_2.go:49.23,51.4 1 0
gitlab.com/fgmarand/gocoverstats/calc/calc_v0_0_2.go:52.38,54.4 1 0
gitlab.com/fgmarand/gocoverstats/calc/calc_v0_0_2.go:56.37,58.23 1 0
gitlab.com/fgmarand/gocoverstats/calc/calc_v0_0_2.go:65.4,65.63 1 0
gitlab.com/fgmarand/gocoverstats/calc/calc_v0_0_2.go:58.23,59.64 1 0
gitlab.com/fgmarand/gocoverstats/calc/calc_v0_0_2.go:62.5,62.13 1 0
gitlab.com/fgmarand/gocoverstats/calc/calc_v0_0_2.go:59.64,61.6 1 0
gitlab.com/fgmarand/gocoverstats/calc/calc_v0_0_2.go:65.63,66.52 1 0
gitlab.com/fgmarand/gocoverstats/calc/calc_v0_0_2.go:69.5,69.43 1 0
gitlab.com/fgmarand/gocoverstats/calc/calc_v0_0_2.go:66.52,67.14 1 0
gitlab.com/fgmarand/gocoverstats/calc/calc_v0_0_2.go:77.85,80.29 3 0
gitlab.com/fgmarand/gocoverstats/calc/calc_v0_0_2.go:98.2,98.38 1 0
gitlab.com/fgmarand/gocoverstats/calc/calc_v0_0_2.go:101.2,101.12 1 0
gitlab.com/fgmarand/gocoverstats/calc/calc_v0_0_2.go:80.29,82.30 2 0
gitlab.com/fgmarand/gocoverstats/calc/calc_v0_0_2.go:92.3,92.15 1 0
gitlab.com/fgmarand/gocoverstats/calc/calc_v0_0_2.go:95.3,96.57 2 0
gitlab.com/fgmarand/gocoverstats/calc/calc_v0_0_2.go:82.30,83.29 1 0
gitlab.com/fgmarand/gocoverstats/calc/calc_v0_0_2.go:83.29,84.12 1 0
gitlab.com/fgmarand/gocoverstats/calc/calc_v0_0_2.go:84.12,86.6 1 0
gitlab.com/fgmarand/gocoverstats/calc/calc_v0_0_2.go:86.11,88.6 1 0
gitlab.com/fgmarand/gocoverstats/calc/calc_v0_0_2.go:92.15,94.4 1 0
gitlab.com/fgmarand/gocoverstats/calc/calc_v0_0_2.go:98.38,100.3 1 0
gitlab.com/fgmarand/gocoverstats/calc/calc.go:29.46,30.17 1 4
gitlab.com/fgmarand/gocoverstats/calc/calc.go:31.14,32.36 1 1
gitlab.com/fgmarand/gocoverstats/calc/calc.go:33.21,34.36 1 2
gitlab.com/fgmarand/gocoverstats/calc/calc.go:35.10,36.67 1 1
